…
    ## The following objects are masked from 'package:base':
    ## 
    ##     intersect, setdiff, setequal, union

``` r
#Tidy data wide to long format
df.data <- gather(df, Replicate_reading, Measurement, Measurement_1:Measurement_3)
#Group by Group Column
group_data <- group_by(df.data, Group)
group_data
```

    ## Source: local data frame [120 x 4]
    ## Groups: Group [2]
    ## 
    ##       ID     Group Replicate_reading Measurement
    ##    <int>    <fctr>             <chr>       <int>
    ## 1      1 Analgesic     Measurement_1          26
    ## 2      2 Analgesic     Measurement_1          29
    ## 3      3 Analgesic     Measurement_1          24
    ## 4      4 Analgesic     Measurement_1          25
    ## 5      5 Analgesic     Measurement_1          24
    ## 6      6 Analgesic     Measurement_1          22
    ## 7      7 Analgesic     Measurement_1          25
    ## 8      8 Analgesic     Measurement_1          28
    ## 9      9 Analgesic     Measurement_1          22
    ## 10    10 Analgesic     Measurement_1          18
    ## # ... with 110 more rows

``` r
#Group by the ID column 
group_id <- group_by(group_data, ID)
group_id
```

    ## Source: local data frame [120 x 4]
    ## Groups: ID [40]
    ## 
    ##       ID     Group Replicate_reading Measurement
    ##    <int>    <fctr>             <chr>       <int>
    ## 1      1 Analgesic     Measurement_1          26
    ## 2      2 Analgesic     Measurement_1          29
    ## 3      3 Analgesic     Measurement_1          24
    ## 4      4 Analgesic     Measurement_1          25
    ## 5      5 Analgesic     Measurement_1          24
    ## 6      6 Analgesic     Measurement_1          22
    ## 7      7 Analgesic     Measurement_1          25
    ## 8      8 Analgesic     Measurement_1          28
    ## 9      9 Analgesic     Measurement_1          22
    ## 10    10 Analgesic     Measurement_1          18
    ## # ... with 110 more rows

``` r
#Summarise multiple values to a single value
sum_data <- summarize(group_id, mean(Measurement))
#Print summary 
print(sum_data)
```

    ## # A tibble: 40 x 2
    ##       ID mean(Measurement)
    ##    <int>             <dbl>
    ## 1      1          24.33333
    ## 2      2          26.00000
    ## 3      3          24.66667
    ## 4      4          23.66667
    ## 5      5          25.00000
    ## 6      6          23.66667
    ## 7      7          26.66667
    ## 8      8          23.33333
    ## 9      9          22.66667
    ## 10    10          24.00000
    ## # ... with 30 more rows
…
``` r
library(knitr)
```

    ## Warning: package 'knitr' was built under R version 3.2.5

``` r
# import dataset
chickweightscsv <- read.csv("chick-weights.csv")
chickweights <- tbl_df(chickweightscsv)
chickweights
```

    ## # A tibble: 71 x 2
    ##    weight      feed
    ##     <int>    <fctr>
    ## 1     179 horsebean
    ## 2     160 horsebean
    ## 3     136 horsebean
    ## 4     227 horsebean
    ## 5     217 horsebean
    ## 6     168 horsebean
    ## 7     108 horsebean
    ## 8     124 horsebean
    ## 9     143 horsebean
    ## 10    140 horsebean
    ## # ... with 61 more rows
…
